4 Manipulação de Dados Tabulares – Ciência de Dados para a Engenharia de Transportes
…
Neste capítulo, o foco está nos pacotes dplyr e readr, que cobrem as operações mais frequentes na etapa de manipulação de dados tabulares.

4.1.2 Leitura de arquivos CSV com read_csv()

Conforme já vimos anteriormente, o R base oferece a função read.csv() para leitura de arquivos CSV. O pacote readr, parte do tidyverse, oferece a alternativa read_csv(). O código abaixo mostra como usar cada uma delas para ler o arquivo escolha_modal.csv:

em1 <- read.csv("escolha_modal.csv")
em2 <- read_csv("escolha_modal.csv")

Embora ambas façam a leitura do mesmo arquivo, o comportamento ao imprimir os objetos é diferente. em1 é um data frame convencional e, caso a base de dados tenha muitas linhas, ao digitá-lo no console, o R imprimirá centenas delas, fazendo com que tenhamos de subir bastante a barra de rolagem à direita para verificar o nome das suas colunas. Já em2 é do tipo tibble. Ao imprimi-lo, aparecem apenas as primeiras dez linhas e apenas as colunas que cabem na largura do console, além dos tipos de cada variável logo abaixo dos nomes das colunas (como <chr> para texto, <dbl> para número real e <int> para inteiro). Observe abaixo:

em2

# A tibble: 1,000 × 7
   sexo  idade renda posse_auto modo_viagem    dist_viagem tempo_viagem
   <chr> <dbl> <dbl> <chr>      <chr>                <dbl>        <dbl>
 1 F        34  3797 N          "Carro ou App"        14.3           27
 2 F        43  3515 N          "Carro ou App"        36.1           55
 3 F        55  4791 S          "TP"                  26.9           64
 4 F        45  2749 N          "A p\xe9"              2.9           26
 5 M        45  2929 N          "Carro ou App"        20.6           44
 6 M        36  2011 N          "TP"                  22.6           58
 7 F        18  1084 N          "TP"                  29.6           83
 8 F        31  2338 N          "TP"                  26.9           63
 9 M        53  7473 S          "Carro ou App"        18.3           39
10 M        40  2786 N          "Carro ou App"        36.8           57
# ℹ 990 more rows
…
# A tibble: 5 × 3
  faixa tipo_veic       velocidade
  <chr> <chr>                <dbl>
1 Cen   Passeio                 54
2 Cen   Caminhão/Ônibus         50
3 Cen   Passeio                 56
4 Dir   Moto                    43
5 Esq   SUV/Pickup              57

A função filter() realiza a filtragem com base em condições lógicas. Os exemplos abaixo usam a base vel com diferentes operadores condicionais sobre a variável velocidade:

vel |>
  filter(velocidade >= 50)

# A tibble: 383 × 3
   faixa tipo_veic       velocidade
   <chr> <chr>                <dbl>
 1 Cen   Passeio                 54
 2 Cen   Caminhão/Ônibus         50
 3 Cen   Passeio                 56
 4 Esq   SUV/Pickup              57
 5 Cen   Caminhão/Ônibus         50
 6 Esq   Passeio                 55
 7 Esq   SUV/Pickup              64
 8 Esq   Passeio                 53
 9 Cen   Passeio                 58
10 Esq   Passeio                 53
# ℹ 373 more rows

vel |>
  filter(velocidade < 45)

# A tibble: 32 × 3
   faixa tipo_veic       velocidade
   <chr> <chr>                <dbl>
 1 Dir   Moto                    43
 2 Dir   Moto                    42
 3 Dir   Caminhão/Ônibus         42
 4 Dir   Caminhão/Ônibus         44
 5 Dir   Moto                    43
 6 Dir   Caminhão/Ônibus         41
 7 Dir   Caminhão/Ônibus         40
 8 Dir   Caminhão/Ônibus         44
 9 Dir   Moto                    43
10 Dir   Caminhão/Ônibus         43
# ℹ 22 more rows
…
Já o exemplo seguinte seleciona registros com velocidade entre 40 e 50 km/h:

vel |>
  filter(velocidade > 40 & velocidade < 50)

# A tibble: 114 × 3
   faixa tipo_veic       velocidade
   <chr> <chr>                <dbl>
 1 Dir   Moto                    43
 2 Dir   Moto                    42
 3 Dir   Moto                    46
 4 Dir   Caminhão/Ônibus         48
 5 Dir   Caminhão/Ônibus         47
 6 Dir   Moto                    46
 7 Dir   Caminhão/Ônibus         42
 8 Dir   Moto                    46
 9 Dir   Passeio                 46
10 Dir   Caminhão/Ônibus         47
# ℹ 104 more rows

Na base em, podemos combinar filtros em variáveis diferentes. O exemplo abaixo seleciona viagens realizadas por pessoas do sexo feminino que usaram transporte público (“TP”) ou foram a pé. Note que o operador %in% verifica se o valor está contido em um vetor de opções, sendo uma alternativa mais limpa a múltiplas condições com | quando temos dados do tipo character.

em |>
  filter(sexo == "F" & modo_viagem %in% c("TP", "A pé"))

# A tibble: 277 × 7
   sexo  idade renda posse_auto modo_viagem dist_viagem tempo_viagem
   <fct> <dbl> <dbl> <fct>      <fct>             <dbl>        <dbl>
 1 F        55  4791 S          TP                 26.9           64
 2 F        45  2749 N          A pé                2.9           26
 3 F        18  1084 N          TP                 29.6           83
 4 F        31  2338 N          TP                 26.9           63
 5 F        32  1170 N          TP                 33.7           79
 6 F        20  1292 N          TP                 31.8           70
 7 F        34  2695 N          A pé                2.7           29
 8 F        66  7295 S          TP                 28.4           62
 9 F        25  1963 N          TP                 28.2           62
10 F        45  3037 N          TP                 23.7           67
# ℹ 267 more rows

4.3 Seleção de Colunas

A seleção de colunas permite manter apenas as variáveis relevantes para a análise, facilitando a leitura do código e reduzindo o uso de memória. No dplyr, usamos a função select().

Para selecionar apenas as colunas tipo_veic e velocidade de vel:

vel |>
  select(tipo_veic, velocidade)

# A tibble: 500 × 2
   tipo_veic       velocidade
   <chr>                <dbl>
 1 Passeio                 54
 2 Caminhão/Ônibus         50
 3 Passeio                 56
 4 Moto                    43
 5 SUV/Pickup              57
 6 Caminhão/Ônibus         50
 7 Passeio                 55
 8 SUV/Pickup              64
 9 Passeio                 53
10 Passeio                 58
# ℹ 490 more rows

Para remover uma coluna, basta preceder o nome com -:

vel |>
  select(-velocidade)

# A tibble: 500 × 2
   faixa tipo_veic      
   <chr> <chr>          
 1 Cen   Passeio        
 2 Cen   Caminhão/Ônibus
 3 Cen   Passeio        
 4 Dir   Moto           
 5 Esq   SUV/Pickup     
 6 Cen   Caminhão/Ônibus
 7 Esq   Passeio        
 8 Esq   SUV/Pickup     
 9 Esq   Passeio        
10 Cen   Passeio        
# ℹ 490 more rows

O select() também pode ser usado para reordenar colunas. Ao listar as colunas na nova ordem desejada, o resultado terá as colunas nessa sequência:

vel |>
  select(velocidade, tipo_veic, faixa)

# A tibble: 500 × 3
   velocidade tipo_veic       faixa
        <dbl> <chr>           <chr>
 1         54 Passeio         Cen  
 2         50 Caminhão/Ônibus Cen  
 3         56 Passeio         Cen  
 4         43 Moto            Dir  
 5         57 SUV/Pickup      Esq  
 6         50 Caminhão/Ônibus Cen  
 7         55 Passeio         Esq  
 8         64 SUV/Pickup      Esq  
 9         53 Passeio         Esq  
10         58 Passeio         Cen  
# ℹ 490 more rows

Eventualmente, nós podemos obter os nomes das variáveis de interesse a serem analisadas a partir de alguma operação anterior que as retorne em formato character. Como a função select() não aceita nomes de colunas nesse formato, podemos usamos a função auxiliar all_of(), conforme o exemplo abaixo:

colunas <- c("tipo_veic", "velocidade")
vel |>
  select(all_of(colunas))

# A tibble: 500 × 2
   tipo_veic       velocidade
   <chr>                <dbl>
 1 Passeio                 54
 2 Caminhão/Ônibus         50
 3 Passeio                 56
 4 Moto                    43
 5 SUV/Pickup              57
 6 Caminhão/Ônibus         50
 7 Passeio                 55
 8 SUV/Pickup              64
 9 Passeio                 53
10 Passeio                 58
# ℹ 490 more rows

4.4 Ordenação de Linhas

A ordenação de linhas reordena as observações de uma tabela com base nos valores de uma ou mais colunas. No dplyr, usamos a função arrange().

Para ordenar vel pela velocidade em ordem crescente:

vel |>
  arrange(velocidade)

# A tibble: 500 × 3
   faixa tipo_veic       velocidade
   <chr> <chr>                <dbl>
 1 Dir   Caminhão/Ônibus         38
 2 Dir   Caminhão/Ônibus         40
 3 Dir   Moto                    40
 4 Dir   Caminhão/Ônibus         41
 5 Dir   Moto                    41
 6 Dir   Caminhão/Ônibus         41
 7 Dir   Moto                    42
 8 Dir   Caminhão/Ônibus         42
 9 Dir   Caminhão/Ônibus         42
10 Dir   Moto                    42
# ℹ 490 more rows

Para ordenar em ordem decrescente, usamos a função auxiliar desc():

vel |>
  arrange(desc(velocidade))

# A tibble: 500 × 3
   faixa tipo_veic  velocidade
   <chr> <chr>           <dbl>
 1 Esq   SUV/Pickup         66
 2 Esq   Passeio            65
 3 Esq   Passeio            65
 4 Esq   Passeio            65
 5 Esq   SUV/Pickup         64
 6 Esq   Passeio            64
 7 Esq   Passeio            64
 8 Esq   Passeio            63
 9 Esq   Passeio            63
10 Esq   Passeio            63
# ℹ 490 more rows

Para variáveis numéricas, uma alternativa mais compacta é usar o sinal de negação diretamente:

vel |>
  arrange(-velocidade)

# A tibble: 500 × 3
   faixa tipo_veic  velocidade
   <chr> <chr>           <dbl>
 1 Esq   SUV/Pickup         66
 2 Esq   Passeio            65
 3 Esq   Passeio            65
 4 Esq   Passeio            65
 5 Esq   SUV/Pickup         64
 6 Esq   Passeio            64
 7 Esq   Passeio            64
 8 Esq   Passeio            63
 9 Esq   Passeio            63
10 Esq   Passeio            63
# ℹ 490 more rows

O resultado é idêntico. Atente-se, no entanto, que a notação com - não funciona para variáveis de texto ou factor, situações em que desc() é obrigatório.

A ordenação também é possível por múltiplas colunas. O código abaixo ordena primeiro por tipo_veic (em ordem alfabética) e, dentro de cada tipo, por velocidade em ordem decrescente:

vel |>
  arrange(tipo_veic, desc(velocidade))

# A tibble: 500 × 3
   faixa tipo_veic       velocidade
   <chr> <chr>                <dbl>
 1 Cen   Caminhão/Ônibus         56
 2 Cen   Caminhão/Ônibus         55
 3 Cen   Caminhão/Ônibus         54
 4 Cen   Caminhão/Ônibus         53
 5 Esq   Caminhão/Ônibus         53
 6 Cen   Caminhão/Ônibus         52
 7 Cen   Caminhão/Ônibus         52
 8 Dir   Caminhão/Ônibus         52
 9 Cen   Caminhão/Ônibus         52
10 Cen   Caminhão/Ônibus         52
# ℹ 490 more rows
…
vel <- vel |>
  mutate(
    tipo_veic = factor(
      tipo_veic,
      levels  = c("Moto", "Passeio", "SUV/Pickup", "Caminhão/Ônibus"),
      ordered = TRUE
    )
  )

Um factor ordenado permite comparações lógicas entre categorias. Por exemplo, tipo_veic > "Passeio" retornará TRUE para “SUV/Pickup” e “Caminhão/Ônibus” e FALSE para “Moto” e “Passeio”. Ao ordenar novamente por tipo_veic, o resultado seguirá a ordem dos níveis definidos:

vel |>
  arrange(tipo_veic)

# A tibble: 500 × 3
   faixa tipo_veic velocidade
   <chr> <fct>          <dbl>
 1 Dir   Moto              43
 2 Dir   Moto              42
 3 Dir   Moto              46
 4 Dir   Moto              46
 5 Dir   Moto              46
 6 Cen   Moto              51
 7 Dir   Moto              43
 8 Dir   Moto              45
 9 Cen   Moto              48
10 Dir   Moto              43
# ℹ 490 more rows
…
# A tibble: 4 × 2
  tipo_veic       peso_kg
  <chr>             <dbl>
1 Moto                120
2 Passeio            1300
3 SUV/Pickup         2000
4 Caminhão/Ônibus   16000

Para incorporar essa informação à base vel, usamos left_join(), função do dplyr que mantém todas as linhas da tabela à esquerda (vel) e adiciona as colunas da tabela à direita (pesos) para as linhas com correspondência:

vel |>
  left_join(pesos, by = "tipo_veic")

# A tibble: 500 × 6
   faixa tipo_veic       velocidade acim60 veic_pesado peso_kg
   <chr> <chr>                <dbl> <lgl>  <chr>         <dbl>
 1 Cen   Passeio                 54 FALSE  N              1300
 2 Cen   Caminhão/Ônibus         50 FALSE  S             16000
 3 Cen   Passeio                 56 FALSE  N              1300
 4 Dir   Moto                    43 FALSE  N               120
 5 Esq   SUV/Pickup              57 FALSE  N              2000
 6 Cen   Caminhão/Ônibus         50 FALSE  S             16000
 7 Esq   Passeio                 55 FALSE  N              1300
 8 Esq   SUV/Pickup              64 TRUE   N              2000
 9 Esq   Passeio                 53 FALSE  N              1300
10 Cen   Passeio                 58 FALSE  N              1300
# ℹ 490 more rows
…
O dplyr oferece outros tipos de junção para diferentes situações. O right_join() mantém todas as linhas da tabela à direita. O inner_join() mantém apenas as linhas com correspondência nas duas tabelas. O full_join() mantém todas as linhas de ambas as tabelas.

Na prática, é comum que as duas tabelas usem nomes diferentes para a mesma coluna-chave. Suponha que a tabela pesos tivesse a coluna chamada veiculo em vez de tipo_veic:

pesos2 <- tibble(
  veiculo = c("Moto", "Passeio", "SUV/Pickup", "Caminhão/Ônibus"),
  peso_kg = c(120, 1300, 2000, 16000)
)

Nesse caso, o argumento by recebe um vetor nomeado, onde o nome é a coluna da tabela da esquerda e o valor é a coluna da tabela da direita:

vel |>
  left_join(pesos2, by = c("tipo_veic" = "veiculo"))

# A tibble: 500 × 6
   faixa tipo_veic       velocidade acim60 veic_pesado peso_kg
   <chr> <chr>                <dbl> <lgl>  <chr>         <dbl>
 1 Cen   Passeio                 54 FALSE  N              1300
 2 Cen   Caminhão/Ônibus         50 FALSE  S             16000
 3 Cen   Passeio                 56 FALSE  N              1300
 4 Dir   Moto                    43 FALSE  N               120
 5 Esq   SUV/Pickup              57 FALSE  N              2000
 6 Cen   Caminhão/Ônibus         50 FALSE  S             16000
 7 Esq   Passeio                 55 FALSE  N              1300
 8 Esq   SUV/Pickup              64 TRUE   N              2000
 9 Esq   Passeio                 53 FALSE  N              1300
10 Cen   Passeio                 58 FALSE  N              1300
# ℹ 490 more rows

Uma sintaxe alternativa e mais legível é usar a função join_by(), disponível a partir do dplyr 1.1.0. Ela recebe uma expressão de igualdade entre os nomes das colunas:

vel |>
  left_join(pesos2, by = join_by(tipo_veic == veiculo))

# A tibble: 500 × 6
   faixa tipo_veic       velocidade acim60 veic_pesado peso_kg
   <chr> <chr>                <dbl> <lgl>  <chr>         <dbl>
 1 Cen   Passeio                 54 FALSE  N              1300
 2 Cen   Caminhão/Ônibus         50 FALSE  S             16000
 3 Cen   Passeio                 56 FALSE  N              1300
 4 Dir   Moto                    43 FALSE  N               120
 5 Esq   SUV/Pickup              57 FALSE  N              2000
 6 Cen   Caminhão/Ônibus         50 FALSE  S             16000
 7 Esq   Passeio                 55 FALSE  N              1300
 8 Esq   SUV/Pickup              64 TRUE   N              2000
 9 Esq   Passeio                 53 FALSE  N              1300
10 Cen   Passeio                 58 FALSE  N              1300
# ℹ 490 more rows
…
O resultado é correto, mas o código é repetitivo, com o nome vel_com_peso aparecendo dez vezes. Cada linha reatribui o objeto ao mesmo nome, e qualquer erro em uma etapa intermediária exige depurar toda a cadeia manualmente. Com o pipe, o mesmo resultado é obtido de forma muito mais clara:

vel |>
  left_join(pesos, by = "tipo_veic") |>
  mutate(peso_ton = peso_kg / 1000) |>
  filter(tipo_veic != "Caminhão/Ônibus") |>
  select(tipo_veic, velocidade, peso_ton) |>
  arrange(desc(velocidade))

# A tibble: 424 × 3
   tipo_veic  velocidade peso_ton
   <chr>           <dbl>    <dbl>
 1 SUV/Pickup         66      2  
 2 Passeio            65      1.3
 3 Passeio            65      1.3
 4 Passeio            65      1.3
 5 SUV/Pickup         64      2  
 6 Passeio            64      1.3
 7 Passeio            64      1.3
 8 Passeio            63      1.3
 9 Passeio            63      1.3
10 Passeio            63      1.3
# ℹ 414 more rows
…
